Signal Analysis/data/T0002ALL-optimized.CSV

Model,MSO2024
Firmware Version,1.35

Point Format,Y,,,
Horizontal Units,S,,,
Horizontal Scale,0.02,,,
Sample Interval,1.6e-06,,,
Filter Frequency,2e+08,,,
Record Length,125000,,,
Gating,0.0% to 100.0%,,0.0% to 100.0%,
Probe Attenuation,1,,1,
Vertical Units,V,,V,
Vertical Offset,0,,0,
Vertical Scale,2,,2,
Label,,,,
TIME,CH1,CH1 Peak Detect,CH2,CH2 Peak Detect
-7.26000e-02,2.64,2.24,0.12,0.44
-7.25984e-02,2.8,2.16,0.0399999,-0.0400001
-7.25968e-02,2.88,2.64,0.12,0.2
-7.25952e-02,2.96,2.56,0.12,-0.0400001
-7.25936e-02,3.04,2.96,0.12,0.28
-7.25920e-02,3.04,2.8,0.12,-0.0400001
-7.25904e-02,3.12,3.04,0.2,0.2
-7.25888e-02,3.12,2.88,0.2,-0.28
-7.25872e-02,3.12,3.12,0.0399999,0.68
-7.25856e-02,3.12,3.04,0.12,-0.2
-7.25840e-02,3.12,3.2,0.2,0.44
-7.25824e-02,3.12,2.96,0.0399999,-0.68
-7.25808e-02,3.12,3.2,0.28,0.84
-7.25792e-02,3.12,2.96,0.12,-0.6
-7.25776e-02,3.12,3.2,0.12,0.84
-7.25760e-02,3.12,2.96,0.0399999,-0.0400001
-7.25744e-02,3.12,3.2,0.0399999,0.28
-7.25728e-02,3.12,3.04,0.0399999,-0.0400001
-7.25712e-02,3.12,3.2,0.0399999,0.2
-7.25696e-02,3.12,3.04,0.0399999,-0.0400001
-7.25680e-02,3.04,3.2,0.12,0.2
-7.25664e-02,3.12,3.04,0.12,-0.0400001
-7.25648e-02,3.12,3.2,0.36,0.2
-7.25632e-02,3.04,2.96,0.12,-0.76
-7.25616e-02,3.04,3.28,0.12,0.84
-7.25600e-02,3.12,2.96,0.0399999,-0.2
-7.25584e-02,3.12,3.2,0.12,0.36
-7.25568e-02,3.04,2.96,0.12,-0.28
-7.25552e-02,3.12,3.2,0.12,0.68
-7.25536e-02,3.04,3.04,0.0399999,-0.0400001
-7.25520e-02,3.12,3.2,0.0399999,0.28
-7.25504e-02,3.12,2.96,0.0399999,-0.6
-7.25488e-02,3.12,3.2,0.12,0.84
-7.25472e-02,3.12,3.04,0.12,-0.0400001
-7.25456e-02,3.12,3.2,-0.0400001,0.2
-7.25440e-02,3.04,2.96,0.12,-0.12
-7.25424e-02,3.04,3.2,0.0399999,0.44
-7.25408e-02,3.04,2.96,-0.0400001,-0.76
-7.25392e-02,3.12,3.2,0.12,0.76
-7.25376e-02,3.12,2.96,0.12,-0.36
-7.25360e-02,3.04,3.12,0.12,0.44
-7.25344e-02,3.12,2.96,0.12,-0.0400001
-7.25328e-02,3.12,3.2,0.2,0.2
-7.25312e-02,3.12,3.04,0.12,-0.28
-7.25296e-02,3.12,3.2,0.12,0.6
-7.25280e-02,3.12,3.04,0.12,-0.12
-7.25264e-02,3.12,3.2,0.2,0.44
-7.25248e-02,3.04,3.04,-0.0400001,-0.0400001
-7.25232e-02,3.12,3.2,0.12,0.28
-7.25216e-02,3.04,2.96,0.12,-0.68
-7.25200e-02,3.04,3.28,0.2,1.08
-7.25184e-02,3.04,2.96,0.12,-0.28
-7.25168e-02,3.04,3.2,0.12,0.52
-7.25152e-02,3.12,3.04,0.12,-0.0400001
-7.25136e-02,3.12,3.12,0.12,0.2
-7.25120e-02,3.04,3.04,0.0399999,-0.0400001
-7.25104e-02,3.04,3.2,0.12,0.2
-7.25088e-02,3.12,3.04,0.12,-0.0400001
-7.25072e-02,3.04,3.2,0.12,0.2
-7.25056e-02,3.12,3.04,0.12,0.0399999
-7.25040e-02,3.12,3.2,0.2,0.2
-7.25024e-02,3.04,3.04,0.12,-0.28
-7.25008e-02,3.12,3.2,0.2,0.6
-7.24992e-02,3.12,2.96,0.2,-0.68
-7.24976e-02,3.12,3.2,0.28,0.84
-7.24960e-02,3.12,3.04,0.12,-0.28
-7.24944e-02,3.12,3.2,0.0399999,0.84
-7.24928e-02,3.04,2.96,0.0399999,-0.6
-7.24912e-02,3.04,3.2,0.0399999,0.68
-7.24896e-02,3.12,3.04,0.12,-0.0400001
-7.24880e-02,3.12,3.2,0.12,0.2
-7.24864e-02,3.04,3.04,0.12,-0.0400001
-7.24848e-02,3.12,3.2,0.0399999,0.2
-7.24832e-02,3.12,3.04,0.12,-0.0400001
-7.24816e-02,3.04,3.2,0.0399999,0.2
-7.24800e-02,3.12,2.96,0.12,-0.68
-7.24784e-02,3.12,3.2,0.12,0.84
-7.24768e-02,3.12,3.04,0.2,-0.0400001
-7.24752e-02,3.12,3.2,0.12,0.28
-7.24736e-02,3.12,3.04,0.12,-0.28
-7.24720e-02,3.12,3.2,0.12,0.6
-7.24704e-02,3.12,3.04,0.2,-0.12
-7.24688e-02,3.2,3.2,0.12,0.44
-7.24672e-02,3.12,3.04,0.12,-0.0400001
-7.24656e-02,3.12,3.2,0.12,0.28
-7.24640e-02,3.04,3.04,0.12,-0.2
-7.24624e-02,3.04,3.28,0.0399999,0.52
-7.24608e-02,3.12,3.04,0.12,-0.6
-7.24592e-02,3.12,3.28,0.12,0.84
-7.24576e-02,3.12,3.04,0.12,-0.0400001
-7.24560e-02,3.12,3.2,0.0399999,0.2
-7.24544e-02,3.04,3.04,0.0399999,-0.0400001
-7.24528e-02,3.12,3.2,0.12,0.2
-7.24512e-02,3.12,3.04,0.12,-0.0400001
-7.24496e-02,3.04,3.2,0.12,0.2
-7.24480e-02,3.12,3.04,0.0399999,-0.0400001
-7.24464e-02,3.12,3.2,0.12,0.2
-7.24448e-02,3.12,3.04,0.12,-0.2
-7.24432e-02,3.12,3.2,0.12,0.44
-7.24416e-02,2.16,3.04,-0.0400001,-0.28
-7.24400e-02,1.2,3.2,0.0399999,0.6
-7.24384e-02,0.56,1.12,0.12,-0.28
-7.24368e-02,0.24,3.2,0.0399999,0.68
-7.24352e-02,0.16,0.16,0.12,-0.6
-7.24336e-02,-1.90735e-08,1.2,0.12,0.84
-7.24320e-02,-1.90735e-08,-0.08,0.12,-0.0400001
-7.24304e-02,-0.08,0.32,0.12,0.2
-7.24288e-02,-0.08,-0.16,0.12,0.0399999
-7.24272e-02,-1.90735e-08,0.08,0.12,0.2
-7.24256e-02,-1.90735e-08,-0.16,0.12,-0.12
-7.24240e-02,-0.08,0.08,0.12,0.2
-7.24224e-02,-0.08,-0.16,0.12,-0.0400001
-7.24208e-02,-1.90735e-08,0.08,0.2,0.2
-7.24192e-02,-1.90735e-08,-0.16,0.2,-0.0400001
-7.24176e-02,-1.90735e-08,0.08,0.12,0.28
-7.24160e-02,-1.90735e-08,-0.16,0.2,-0.12
-7.24144e-02,-1.90735e-08,0.08,0.12,0.44
-7.24128e-02,-1.90735e-08,-0.16,0.28,-0.44
-7.24112e-02,-1.90735e-08,0.16,0.12,0.84
-7.24096e-02,0.08,-0.08,0.2,-0.2
-7.24080e-02,-1.90735e-08,0.08,0.12,0.44
-7.24064e-02,-1.90735e-08,-0.16,0.2,-0.76
-7.24048e-02,-1.90735e-08,0.24,0.12,1
-7.24032e-02,-0.08,-0.08,0.12,-0.0400001
-7.24016e-02,-1.90735e-08,0.08,0.12,0.2
-7.24000e-02,-1.90735e-08,-0.16,0.12,-0.0400001
-7.23984e-02,-1.90735e-08,-1.90735e-08,0.12,0.2
-7.23968e-02,-0.08,-0.16,0.12,-0.0400001
-7.23952e-02,-0.08,0.08,0.12,0.28
-7.23936e-02,-0.08,-0.16,0.2,0.0399999
-7.23920e-02,-1.90735e-08,-1.90735e-08,0.2,0.2
-7.23904e-02,-1.90735e-08,-0.16,0.12,-0.0400001
-7.23888e-02,0.08,0.08,0.12,0.28
-7.23872e-02,-1.90735e-08,-0.16,0.12,-0.52
-7.23856e-02,-1.90735e-08,0.24,0.0399999,0.92
-7.23840e-02,-1.90735e-08,-0.08,0.12,-0.0400001
-7.23824e-02,-1.90735e-08,0.16,0.12,0.28
-7.23808e-02,0.08,-0.16,0.12,-0.76
-7.23792e-02,-1.90735e-08,0.16,0.12,1.08
-7.23776e-02,-1.90735e-08,-0.16,0.12,-0.0400001
-7.23760e-02,-1.90735e-08,0.16,0.12,0.2
-7.23744e-02,-1.90735e-08,-0.16,0.12,0.0399999
-7.23728e-02,-1.90735e-08,0.08,0.12,0.2
-7.23712e-02,-1.90735e-08,-0.16,0.0399999,-0.0400001
-7.23696e-02,-1.90735e-08,0.08,0.12,0.2
-7.23680e-02,-1.90735e-08,-0.16,0.12,-0.0400001
-7.23664e-02,-0.08,0.08,0.12,0.28
-7.23648e-02,-1.90735e-08,-0.16,0.12,-0.0400001
-7.23632e-02,-1.90735e-08,0.08,0.36,0.2
-7.23616e-02,-1.90735e-08,-0.16,0.12,-0.36
-7.23600e-02,-1.90735e-08,0.16,0.2,0.76
-7.23584e-02,-1.90735e-08,-0.08,0.12,-0.2
-7.23568e-02,0.08,0.08,-0.28,0.44
-7.23552e-02,0.08,-0.16,0.12,-0.84
-7.23536e-02,-1.90735e-08,0.24,0.12,1.08
-7.23520e-02,-0.08,-0.08,0.12,-0.44
-7.23504e-02,-1.90735e-08,0.16,0.12,0.68
-7.23488e-02,-1.90735e-08,-0.16,0.12,-0.0400001
-7.23472e-02,-0.08,0.08,0.12,0.2
-7.23456e-02,-0.08,-0.16,0.12,-0.0400001
-7.23440e-02,-0.08,-1.90735e-08,0.12,0.2
-7.23424e-02,-0.08,-0.16,0.12,-0.0400001
-7.23408e-02,-1.90735e-08,-1.90735e-08,0.12,0.2
-7.23392e-02,-1.90735e-08,-0.16,0.12,-0.12
-7.23376e-02,-0.08,-1.90735e-08,0.12,0.2
-7.23360e-02,-1.90735e-08,-0.16,0.2,-0.0400001
-7.23344e-02,-1.90735e-08,0.08,0.12,0.28
-7.23328e-02,-1.90735e-08,-0.16,0.12,-0.36
-7.23312e-02,0.08,0.08,0.2,0.76
-7.23296e-02,-1.90735e-08,-0.16,0.2,-0.0400001
-7.23280e-02,0.08,0.08,0.12,0.28
-7.23264e-02,-1.90735e-08,-0.16,0.12,-0.6
-7.23248e-02,-1.90735e-08,0.16,0.12,0.92
-7.23232e-02,-1.90735e-08,-0.16,0.12,-0.0400001
-7.23216e-02,-1.90735e-08,0.08,0.12,0.2
-7.23200e-02,-0.08,-0.16,0.12,-0.0400001
-7.23184e-02,-1.90735e-08,0.08,0.0399999,0.2
-7.23168e-02,-0.08,-0.16,0.12,-0.0400001
-7.23152e-02,-1.90735e-08,-1.90735e-08,0.0399999,0.2
-7.23136e-02,-0.08,-0.16,0.12,-0.0400001
-7.23120e-02,-1.90735e-08,-1.90735e-08,0.12,0.2
-7.23104e-02,-0.08,-0.16,0.12,-0.0400001
-7.23088e-02,-0.08,0.08,0.12,0.2
-7.23072e-02,-1.90735e-08,-0.16,0.12,0.0399999
-7.23056e-02,-0.08,0.08,0.12,0.2
-7.23040e-02,0.08,-0.08,0.12,-0.36
-7.23024e-02,0.08,0.08,0.12,0.68
-7.23008e-02,-1.90735e-08,-0.08,0.0399999,-0.76
-7.22992e-02,-1.90735e-08,0.24,0.12,1
-7.22976e-02,-1.90735e-08,-0.08,0.12,-0.2
-7.22960e-02,-1.90735e-08,0.08,0.12,0.44
-7.22944e-02,-1.90735e-08,-0.16,0.0399999,-0.0400001
-7.22928e-02,-1.90735e-08,0.08,0.0399999,0.2
-7.22912e-02,-1.90735e-08,-0.16,0.0399999,-0.0400001
-7.22896e-02,-1.90735e-08,0.08,0.0399999,0.2
-7.22880e-02,-1.90735e-08,-0.16,0.12,-0.0400001
-7.22864e-02,-1.90735e-08,-1.90735e-08,0.12,0.2
-7.22848e-02,-1.90735e-08,-0.16,0.12,-0.0400001
-7.22832e-02,-1.90735e-08,-1.90735e-08,0.12,0.2
-7.22816e-02,-1.90735e-08,-0.16,0.2,-0.36
-7.22800e-02,-1.90735e-08,0.08,0.2,0.76
-7.22784e-02,-1.90735e-08,-0.08,0.28,-0.0400001
-7.22768e-02,-1.90735e-08,0.08,0.2,0.36
-7.22752e-02,-1.90735e-08,-0.08,0.12,-0.12
-7.22736e-02,0.16,0.08,0.12,0.52
-7.22720e-02,0.08,-0.08,0.12,-1
-7.22704e-02,-1.90735e-08,0.32,-0.28,1.24
-7.22688e-02,1.28,-0.16,0.12,-0.28
-7.22672e-02,1.76,0.24,0.0399999,0.44
-7.22656e-02,2.16,-0.08,0.12,-0.6
-7.22640e-02,2.4,1.84,0.0399999,1.16
-7.22624e-02,2.64,1.76,0.0399999,-0.0400001
-7.22608e-02,2.8,2.48,0.12,0.28
-7.22592e-02,2.88,2.4,0.12,-0.0400001
-7.22576e-02,2.88,2.8,0.12,0.2
-7.22560e-02,2.96,2.72,0.0399999,-0.0400001
-7.22544e-02,3.04,3.04,0.12,0.2
-7.22528e-02,3.04,2.88,0.2,-0.0400001
-7.22512e-02,3.04,3.12,0.12,0.2
-7.22496e-02,3.12,2.96,0.12,-0.28
-7.22480e-02,3.12,3.2,0.12,0.6
-7.22464e-02,3.12,3.04,0.2,-0.12
-7.22448e-02,3.12,3.2,0.2,0.44
-7.22432e-02,3.04,3.04,0.0399999,-0.0400001
-7.22416e-02,3.12,3.2,0.12,0.28
-7.22400e-02,3.04,2.8,0.2,-0.92
-7.22384e-02,3.04,3.28,0.12,1.08
-7.22368e-02,3.04,2.96,0.12,-0.28
-7.22352e-02,3.04,3.12,0.12,0.36
-7.22336e-02,3.12,2.96,0.12,-0.0400001
-7.22320e-02,3.12,3.2,0.12,0.2
-7.22304e-02,3.12,3.04,0.12,-0.0400001
-7.22288e-02,3.12,3.2,0.12,0.2
-7.22272e-02,3.12,3.04,0.12,-0.0400001
-7.22256e-02,3.12,3.2,0.12,0.2
-7.22240e-02,3.12,3.04,0.12,-0.0400001
-7.22224e-02,3.12,3.2,0.12,0.2
-7.22208e-02,3.12,3.04,0.12,-0.28
-7.22192e-02,3.12,3.2,0.12,0.6
-7.22176e-02,3.2,3.04,1.16,-0.0400001
-7.22160e-02,3.04,3.2,0.0399999,0.28
-7.22144e-02,3.04,2.8,0.12,-0.92
-7.22128e-02,3.12,3.28,0.12,1.24
-7.22112e-02,3.04,2.96,0.12,-0.28
-7.22096e-02,3.12,3.12,0.12,0.36
-7.22080e-02,3.04,2.96,0.12,-0.0400001
-7.22064e-02,3.12,3.12,0.12,0.2
-7.22048e-02,3.12,3.04,0.12,-0.0400001
-7.22032e-02,3.12,3.2,0.0399999,0.2
-7.22016e-02,3.12,3.04,0.12,-0.12
-7.22000e-02,3.12,3.2,0.12,0.28
-7.21984e-02,3.04,3.04,0.12,-0.0400001
-7.21968e-02,3.12,3.2,0.2,0.2
-7.21952e-02,3.12,3.04,0.12,-0.2
-7.21936e-02,3.12,3.2,0.12,0.6
-7.21920e-02,3.12,3.04,0.12,-0.12
-7.21904e-02,3.12,3.28,0.2,0.44
-7.21888e-02,3.12,3.04,0.12,-0.2
-7.21872e-02,3.12,3.2,0.12,0.44
-7.21856e-02,3.12,3.04,0.12,-0.2
-7.21840e-02,3.12,3.2,0.12,0.44
-7.21824e-02,3.04,3.04,0.12,-0.0400001
-7.21808e-02,3.12,3.2,0.12,0.28
-7.21792e-02,3.04,2.88,0.12,-0.92
-7.21776e-02,3.04,3.28,0.0399999,1.32
-7.21760e-02,3.12,2.96,0.12,-0.36
-7.21744e-02,3.12,3.12,0.12,0.44
-7.21728e-02,3.12,3.04,0.0399999,-0.0400001
-7.21712e-02,3.12,3.2,0.12,0.2
-7.21696e-02,3.12,3.04,0.12,-0.2
-7.21680e-02,3.12,3.2,0.2,0.52
-7.21664e-02,3.12,3.04,0.12,-0.12
-7.21648e-02,3.12,3.2,0.2,0.44
-7.21632e-02,3.12,2.96,0.12,-0.28
-7.21616e-02,3.12,3.2,0.12,0.44
-7.21600e-02,3.04,3.04,0.12,-0.28
-7.21584e-02,3.12,3.2,0.12,0.68
-7.21568e-02,3.12,3.04,0.2,-0.2
-7.21552e-02,3.12,3.2,0.12,0.44
-7.21536e-02,3.04,3.04,-0.12,-0.0400001
-7.21520e-02,3.04,3.2,0.0399999,0.2
-7.21504e-02,3.04,2.8,0.0399999,-0.92
-7.21488e-02,3.04,3.28,0.12,1.32
-7.21472e-02,3.12,2.96,0.12,-0.28
-7.21456e-02,3.12,3.12,0.12,0.44
-7.21440e-02,3.12,2.96,0.12,-0.2
-7.21424e-02,3.12,3.2,0.12,0.52
-7.21408e-02,3.12,3.04,0.2,-0.28
-7.21392e-02,3.12,3.2,0.12,0.36
-7.21376e-02,3.12,3.04,0.2,-0.12
-7.21360e-02,3.12,3.2,0.2,0.44
-7.21344e-02,3.12,3.04,0.12,-0.0400001
-7.21328e-02,3.12,3.2,0.12,0.28
-7.21312e-02,3.12,3.04,0.12,-0.52
-7.21296e-02,3.12,3.2,0.12,0.84
-7.21280e-02,3.12,3.04,0.12,-0.0400001
-7.21264e-02,3.12,3.2,0.12,0.2
-7.21248e-02,3.12,3.04,0.12,0.0399999
-7.21232e-02,3.04,3.2,0.12,0.2
-7.21216e-02,3.04,2.88,0.12,-0.92
-7.21200e-02,3.04,3.28,0.12,1.4
-7.21184e-02,3.12,2.96,0.2,-0.28
-7.21168e-02,3.04,3.12,0.12,0.36
-7.21152e-02,3.12,2.96,0.12,-0.28
-7.21136e-02,3.12,3.2,0.2,0.36
-7.21120e-02,3.04,3.04,0.2,-0.0400001
-7.21104e-02,3.04,3.2,0.12,0.28
-7.21088e-02,3.04,3.04,0.12,-0.12
-7.21072e-02,3.12,3.2,0.12,0.44
-7.21056e-02,3.12,3.04,0.12,-0.12
-7.21040e-02,3.12,3.2,0.12,0.28
-7.21024e-02,3.12,3.04,0.12,-0.36
-7.21008e-02,3.12,3.2,0.12,0.68
-7.20992e-02,2,3.04,0.12,-0.0400001
-7.20976e-02,1.04,3.2,0.12,0.2
-7.20960e-02,0.48,0.96,0.0399999,-0.28
-7.20944e-02,0.24,3.2,0.28,0.76
-7.20928e-02,0.16,0.16,0.0399999,-0.36
-7.20912e-02,0.08,1.12,0.12,0.44
-7.20896e-02,-1.90735e-08,-0.08,0.12,-1.16
-7.20880e-02,-1.90735e-08,0.4,0.12,1.32
-7.20864e-02,-0.08,-0.08,0.12,-0.36
-7.20848e-02,-0.08,0.08,0.12,0.44
-7.20832e-02,-1.90735e-08,-0.16,0.12,-0.0400001
-7.20816e-02,-1.90735e-08,0.08,0.12,0.28
-7.20800e-02,-1.90735e-08,-0.16,0.12,-0.12
-7.20784e-02,-1.90735e-08,0.08,0.12,0.44
-7.20768e-02,-0.08,-0.16,0.0399999,-0.0400001
-7.20752e-02,-0.08,-1.90735e-08,0.0399999,0.2
-7.20736e-02,0.24,-0.16,0.2,-0.28
-7.20720e-02,0.08,0.08,0.0399999,0.44
-7.20704e-02,-1.90735e-08,-0.16,0.0399999,-1.08
-7.20688e-02,-0.08,0.32,0.12,1.16
-7.20672e-02,-1.90735e-08,-0.16,0.12,-0.28
-7.20656e-02,-0.08,0.08,0.0399999,0.44
-7.20640e-02,-1.90735e-08,-0.16,0.12,-0.0400001
-7.20624e-02,-1.90735e-08,0.08,0.2,0.2
-7.20608e-02,-1.90735e-08,-0.16,0.12,-0.0400001
-7.20592e-02,-0.08,0.08,0.12,0.28
-7.20576e-02,-1.90735e-08,-0.16,0.12,0.0399999
-7.20560e-02,-1.90735e-08,0.08,0.12,0.2
-7.20544e-02,-1.90735e-08,-0.16,0.2,-0.0400001
-7.20528e-02,-1.90735e-08,0.08,0.12,0.28
-7.20512e-02,-1.90735e-08,-0.16,0.12,-0.28
-7.20496e-02,0.16,0.08,0.12,0.68
-7.20480e-02,0.08,-0.08,0.12,-1
-7.20464e-02,-1.90735e-08,0.32,0.0399999,1.24
-7.20448e-02,-0.08,-0.08,0.12,-0.36
-7.20432e-02,-1.90735e-08,0.24,0.12,0.44
-7.20416e-02,-0.08,-0.16,0.12,-0.0400001
-7.20400e-02,-1.90735e-08,0.08,0.12,0.28
-7.20384e-02,-1.90735e-08,-0.16,0.0399999,0.0399999
-7.20368e-02,-1.90735e-08,0.08,0.0399999,0.2
-7.20352e-02,-0.08,-0.16,0.12,-0.0400001
-7.20336e-02,-1.90735e-08,-1.90735e-08,0.2,0.2
-7.20320e-02,-1.90735e-08,-0.16,0.12,-0.0400001
-7.20304e-02,-1.90735e-08,0.08,0.12,0.28
-7.20288e-02,-1.90735e-08,-0.16,0.2,0.0399999
-7.20272e-02,-1.90735e-08,0.08,0.12,0.2
-7.20256e-02,-0.08,-0.08,0.2,-0.44
-7.20240e-02,0.08,0.08,0.0399999,0.68
-7.20224e-02,-1.90735e-08,-0.08,0.12,-1.08
-7.20208e-02,-1.90735e-08,0.32,0.12,1.24
-7.20192e-02,-1.90735e-08,-0.08,0.12,-0.28
-7.20176e-02,-1.90735e-08,0.16,0.12,0.52
-7.20160e-02,-0.08,-0.16,0.12,-0.12
-7.20144e-02,-0.08,0.08,0.0399999,0.2
-7.20128e-02,-0.08,-0.16,0.12,-0.36
-7.20112e-02,-0.08,0.08,0.12,0.68
-7.20096e-02,-0.08,-0.16,0.12,-0.0400001
-7.20080e-02,-0.08,0.08,0.12,0.2
-7.20064e-02,-0.08,-0.16,0.12,-0.28
-7.20048e-02,-1.90735e-08,-1.90735e-08,0.12,0.52
-7.20032e-02,-1.90735e-08,-0.16,0.12,-0.28
-7.20016e-02,-1.90735e-08,0.08,0.2,0.68
-7.20000e-02,-1.90735e-08,-0.08,0.12,-0.36
-7.19984e-02,-1.90735e-08,0.08,0.12,0.76
-7.19968e-02,-1.90735e-08,-0.08,0.2,-0.12
-7.19952e-02,-1.90735e-08,0.08,0.44,0.44
-7.19936e-02,0.16,-0.08,0.12,-0.28
-7.19920e-02,-1.90735e-08,0.08,0.12,0.44
-7.19904e-02,0.08,-0.08,0.12,-1
-7.19888e-02,-1.90735e-08,0.32,0.0399999,1.24
-7.19872e-02,-0.08,-0.16,0.0399999,-0.28
-7.19856e-02,-1.90735e-08,0.08,0.12,0.52
-7.19840e-02,-1.90735e-08,-0.16,0.12,-0.0400001
-7.19824e-02,-1.90735e-08,0.08,0.36,0.2
-7.19808e-02,-1.90735e-08,-0.16,0.12,-0.2
-7.19792e-02,-1.90735e-08,-1.90735e-08,0.2,0.52
-7.19776e-02,-0.08,-0.16,0.12,-0.28
-7.19760e-02,-1.90735e-08,0.08,0.12,0.36
-7.19744e-02,-1.90735e-08,-0.16,0.2,-0.44
-7.19728e-02,-1.90735e-08,0.08,0.12,0.68
-7.19712e-02,-1.90735e-08,-0.16,0.2,-0.28
-7.19696e-02,-1.90735e-08,0.08,0.12,0.6
-7.19680e-02,-0.08,-0.16,0.12,-0.12
-7.19664e-02,0.24,0.08,0.36,0.44
-7.19648e-02,0.08,-0.16,0.12,-1.08
-7.19632e-02,0.08,0.32,0.44,1.24
-7.19616e-02,-1.90735e-08,-0.08,0.0399999,-0.44
-7.19600e-02,-1.90735e-08,0.32,0.0399999,0.52
-7.19584e-02,-0.08,-0.16,0.12,-0.28
-7.19568e-02,-1.90735e-08,0.08,-0.0400001,0.52
-7.19552e-02,-1.90735e-08,-0.16,0.12,-0.28
-7.19536e-02,-1.90735e-08,-1.90735e-08,0.0399999,0.52
-7.19520e-02,-1.90735e-08,-0.16,0.12,-0.0400001
-7.19504e-02,-1.90735e-08,0.08,0.12,0.2
-7.19488e-02,-0.08,-0.16,0.12,-0.44
-7.19472e-02,-1.90735e-08,0.08,0.12,0.68
-7.19456e-02,-1.90735e-08,-0.16,0.2,-0.0400001
-7.19440e-02,-0.08,0.08,0.12,0.2
-7.19424e-02,-1.90735e-08,-0.16,0.12,-0.28
-7.19408e-02,-1.90735e-08,0.08,0.12,0.68
-7.19392e-02,-1.90735e-08,-0.08,0.2,-0.12
-7.19376e-02,-1.90735e-08,0.08,0.12,0.44
-7.19360e-02,0.08,-0.16,-0.0400001,-0.0400001
-7.19344e-02,-1.90735e-08,0.08,0.0399999,0.28
-7.19328e-02,1.2,-0.08,0.12,-1
-7.19312e-02,1.76,0.32,0.12,1.24
-7.19296e-02,2.16,-0.08,0.12,-0.52
-7.19280e-02,2.48,1.84,0.12,1
-7.19264e-02,2.64,1.76,0.12,-0.0400001
-7.19248e-02,2.72,2.48,0.12,0.2
-7.19232e-02,2.8,2.4,0.12,-0.44
-7.19216e-02,2.96,2.8,0.12,0.6
-7.19200e-02,2.96,2.72,0.12,-0.0400001
-7.19184e-02,3.04,3.04,0.12,0.28
-7.19168e-02,3.04,2.88,0.2,-0.0400001
-7.19152e-02,3.12,3.12,0.12,0.2
-7.19136e-02,3.12,2.96,0.12,-0.28
-7.19120e-02,3.12,3.12,0.12,0.6
-7.19104e-02,3.04,3.04,0.2,-0.0400001
-7.19088e-02,3.04,3.2,0.0399999,0.28
-7.19072e-02,3.04,2.8,0.12,-0.92
-7.19056e-02,3.04,3.28,0.2,1.32
-7.19040e-02,3.12,2.96,0.12,-0.52
-7.19024e-02,3.04,3.2,0.12,0.68
-7.19008e-02,3.12,2.96,0.12,-0.12
-7.18992e-02,3.04,3.12,0.0399999,0.2
-7.18976e-02,3.12,2.96,0.0399999,-0.44
-7.18960e-02,3.12,3.2,0.12,0.6
-7.18944e-02,3.12,2.96,0.12,-0.12
-7.18928e-02,3.12,3.2,0.12,0.28
-7.18912e-02,3.12,3.04,0.12,0.0399999
-7.18896e-02,3.12,3.2,0.12,0.2
-7.18880e-02,3.2,3.04,0.12,0.0399999
-7.18864e-02,3.04,3.2,0.0399999,0.2
-7.18848e-02,3.04,2.8,0.0399999,-0.92
-7.18832e-02,3.12,3.2,0.12,1.32
-7.18816e-02,3.04,2.96,0.12,-0.28
-7.18800e-02,3.12,3.12,0.12,0.36
-7.18784e-02,3.04,2.96,0.0399999,0.0399999
-7.18768e-02,3.12,3.2,0.0399999,0.2
-7.18752e-02,3.12,2.96,0.0399999,-0.28
-7.18736e-02,3.12,3.2,0.12,0.52
-7.18720e-02,3.04,3.04,0.12,-0.0400001
-7.18704e-02,3.12,3.2,0.12,0.28
-7.18688e-02,3.12,3.04,0.12,0.0399999
-7.18672e-02,3.12,3.2,0.12,0.2
-7.18656e-02,3.04,3.04,0.0399999,-0.28
-7.18640e-02,3.04,3.2,0.12,0.6
-7.18624e-02,3.12,2.88,0.12,-0.92
-7.18608e-02,3.12,3.28,0.2,1.32
-7.18592e-02,3.04,2.96,0.0399999,-0.28
-7.18576e-02,3.12,3.2,0.12,0.36
-7.18560e-02,3.04,3.04,0.12,-0.2
-7.18544e-02,3.12,3.2,0.12,0.44
-7.18528e-02,3.12,3.04,0.2,-0.0400001
-7.18512e-02,3.12,3.2,0.12,0.28
-7.18496e-02,3.12,3.04,0.12,-0.44
-7.18480e-02,3.12,3.28,0.12,0.76
-7.18464e-02,3.2,3.04,0.12,-0.0400001
-7.18448e-02,3.12,3.2,0.12,0.28
-7.18432e-02,3.04,3.04,0.28,-0.28
-7.18416e-02,3.04,3.2,0.12,0.6
-7.18400e-02,3.04,2.88,0.2,-0.92
-7.18384e-02,3.04,3.28,0.12,1.32
-7.18368e-02,3.12,2.96,0.12,-0.28
-7.18352e-02,3.12,3.12,0.12,0.44
-7.18336e-02,3.12,3.04,0.12,0.0399999
-7.18320e-02,3.12,3.2,0.2,0.2
-7.18304e-02,3.12,3.04,0.12,-0.0400001
-7.18288e-02,3.12,3.2,0.12,0.28
-7.18272e-02,3.04,3.04,0.0399999,-0.44
-7.18256e-02,3.12,3.2,0.12,0.68
-7.18240e-02,3.12,3.04,0.2,-0.12
-7.18224e-02,3.12,3.2,0.12,0.2
-7.18208e-02,3.12,3.04,0.2,-0.28
-7.18192e-02,3.12,3.2,0.12,0.6
-7.18176e-02,3.04,3.04,-0.0400001,-0.0400001
-7.18160e-02,2.96,3.2,0.0399999,0.2
-7.18144e-02,3.04,2.88,0.12,-0.92
-7.18128e-02,3.04,3.2,0.12,1.24
-7.18112e-02,3.04,2.96,0.0399999,-0.36
-7.18096e-02,3.04,3.12,0.12,0.36
-7.18080e-02,3.12,2.96,0.12,-0.28
-7.18064e-02,3.04,3.12,0.12,0.52
-7.18048e-02,3.12,3.04,0.2,-0.0400001
-7.18032e-02,3.12,3.2,-0.0400001,0.2
-7.18016e-02,3.12,3.04,0.12,-0.2
-7.18000e-02,3.12,3.2,0.12,0.44
-7.17984e-02,3.12,3.04,0.12,-0.44
-7.17968e-02,3.12,3.2,0.2,0.68
-7.17952e-02,3.12,3.04,0.12,-0.28
-7.17936e-02,3.12,3.2,0.12,0.68
-7.17920e-02,3.12,3.04,0.12,-0.2
-7.17904e-02,3.04,3.2,-0.0400001,0.44
-7.17888e-02,3.04,2.8,0.0399999,-0.92
-7.17872e-02,3.04,3.28,-0.0400001,1.32
-7.17856e-02,3.04,2.96,0.12,-0.28
-7.17840e-02,3.12,3.12,0.2,0.36
-7.17824e-02,3.12,2.96,0.12,-0.12
-7.17808e-02,3.04,3.12,0.0399999,0.36
-7.17792e-02,3.12,2.96,0.12,-0.28
-7.17776e-02,3.12,3.2,0.12,0.52
-7.17760e-02,2.56,3.04,0.28,-0.0400001
-7.17744e-02,1.36,3.2,0.12,0.28
-7.17728e-02,0.64,1.36,0.12,-0.44
-7.17712e-02,0.32,3.2,0.0399999,0.84
-7.17696e-02,0.16,0.24,0.12,-0.44
-7.17680e-02,-1.90735e-08,1.44,0.12,0.68
-7.17664e-02,-1.90735e-08,-1.90735e-08,0.12,-0.28
-7.17648e-02,-1.90735e-08,0.32,0.12,0.6
-7.17632e-02,0.16,-0.08,0.12,-0.0400001
-7.17616e-02,-1.90735e-08,0.08,0.0399999,0.28
